…
***

#### `filter`

Keeps rows that meet certain conditions, and filters out the ones that don't. For example, we can filter the `cooties` data to only include Males in the Placebo treatment arm.

Note that the `cooties` dataframe itself doesn't actually change unless we re-assign the value using the `<-` operator.

```r
filter(cooties, sex == 1, treatment_arm == 0)
```

```
## # A tibble: 251 x 7
##       id   sex date_of_birth   treatment_arm trial_entrance death trial_exit
##    <int> <int> <chr>                   <int> <date>         <lgl> <date>    
##  1     4     1 June 13 1999                0 2010-03-23     TRUE  2015-03-09
##  2    10     1 June 14 2001                0 2012-02-16     TRUE  2014-11-18
##  3    18     1 January 1 2006              0 2012-12-26     TRUE  2014-11-03
##  4    20     1 April 10 2006               0 2011-12-24     TRUE  2013-07-26
##  5    27     1 January 3 2002              0 2012-11-21     TRUE  2013-09-25
##  6    35     1 February 3 2003             0 2010-01-03     TRUE  2011-10-11
##  7    38     1 August 19 2002              0 2012-10-13     TRUE  2015-03-09
##  8    41     1 May 11 2006                 0 2011-07-05     TRUE  2014-10-01
##  9    54     1 April 8 1998                0 2011-08-08     TRUE  2014-04-16
## 10    55     1 October 22 1999             0 2010-05-09     TRUE  2011-10-24
## # ... with 241 more rows
```

***

#### `select`

Allows you to select the columns that you provide as arguments, or remove columns if you put a `-` in front. For example, if we want to make a new data frame with only `id`, `sex` and `date_of_birth` we can type:

```r
select(cooties, id, sex, date_of_birth)
```

```
## # A tibble: 1,000 x 3
##       id   sex date_of_birth   
##    <int> <int> <chr>           
##  1     1     1 November 25 2002
##  2     2     0 December 28 2002
##  3     3     1 November 25 2004
##  4     4     1 June 13 1999    
##  5     5     0 March 6 2005    
##  6     6     1 January 3 2009  
##  7     7     0 August 17 2004  
##  8     8     0 January 2 2003  
##  9     9     1 July 15 2000    
## 10    10     1 June 14 2001    
## # ... with 990 more rows
```

But typing this produces the exact same results:

```r
select(cooties, -treatment_arm, -trial_entrance, -death, -trial_exit)
```

```
## # A tibble: 1,000 x 3
##       id   sex date_of_birth   
##    <int> <int> <chr>           
##  1     1     1 November 25 2002
##  2     2     0 December 28 2002
##  3     3     1 November 25 2004
##  4     4     1 June 13 1999    
##  5     5     0 March 6 2005    
##  6     6     1 January 3 2009  
##  7     7     0 August 17 2004  
##  8     8     0 January 2 2003  
##  9     9     1 July 15 2000    
## 10    10     1 June 14 2001    
## # ... with 990 more rows
```
***

#### `mutate`

Allows you to create new variables from old variables, effecively "mutating" the data frame. For example, we can make a new variable `years_in_trial` to describe how long the subject was followed. We do that by subtracting the end date (`trial_exit`) from the start date (`trial_entrance`).

Because we actually want to keep this change, we will use the assignment operator `<-` to overwrite `cooties`

```r
cooties <- mutate(cooties, years_in_trial = as.numeric(trial_exit - trial_entrance) / 365.25)
cooties
```

```
## # A tibble: 1,000 x 8
##       id   sex date_of_birth    treatment_arm trial_entrance death trial_exit years_in_trial
##    <int> <int> <chr>                    <int> <date>         <lgl> <date>              <dbl>
##  1     1     1 November 25 2002             1 2012-04-23     FALSE 2012-08-19          0.323
##  2     2     0 December 28 2002             1 2012-01-26     FALSE 2015-03-09          3.12 
##  3     3     1 November 25 2004             1 2011-12-12     TRUE  2012-08-15          0.676
##  4     4     1 June 13 1999                 0 2010-03-23     TRUE  2015-03-09          4.96 
##  5     5     0 March 6 2005                 1 2012-09-11     TRUE  2015-03-09          2.49 
##  6     6     1 January 3 2009               1 2010-05-25     FALSE 2010-09-06          0.285
##  7     7     0 August 17 2004               0 2010-08-18     TRUE  2010-12-06          0.301
##  8     8     0 January 2 2003               1 2010-06-18     FALSE 2014-10-08          4.31 
##  9     9     1 July 15 2000                 1 2010-03-01     TRUE  2013-10-25          3.65 
## 10    10     1 June 14 2001                 0 2012-02-16     TRUE  2014-11-18          2.75 
## # ... with 990 more rows
```
You also have the option to overwrite variables by replacing the name, as in:

```r
mutate(cooties, sex = ifelse(sex == 1, 'Male', 'Female'))


# Note:
# The `ifelse()` function checks each observation to see if it meets a
# condition. Here the condition is that `sex == 1`
# IF it is True: It will return the value 'Male'. 
# ELSE (i.e., it is False): It will return the value 'Female'
```

```
## # A tibble: 1,000 x 8
##       id sex    date_of_birth    treatment_arm trial_entrance death trial_exit years_in_trial
##    <int> <chr>  <chr>                    <int> <date>         <lgl> <date>              <dbl>
##  1     1 Male   November 25 2002             1 2012-04-23     FALSE 2012-08-19          0.323
##  2     2 Female December 28 2002             1 2012-01-26     FALSE 2015-03-09          3.12 
##  3     3 Male   November 25 2004             1 2011-12-12     TRUE  2012-08-15          0.676
##  4     4 Male   June 13 1999                 0 2010-03-23     TRUE  2015-03-09          4.96 
##  5     5 Female March 6 2005                 1 2012-09-11     TRUE  2015-03-09          2.49 
##  6     6 Male   January 3 2009               1 2010-05-25     FALSE 2010-09-06          0.285
##  7     7 Female August 17 2004               0 2010-08-18     TRUE  2010-12-06          0.301
##  8     8 Female January 2 2003               1 2010-06-18     FALSE 2014-10-08          4.31 
##  9     9 Male   July 15 2000                 1 2010-03-01     TRUE  2013-10-25          3.65 
## 10    10 Male   June 14 2001                 0 2012-02-16     TRUE  2014-11-18          2.75 
## # ... with 990 more rows
```
…
# Note:
# `c()` means 'concatenate'; it is how you attach multiple objects together as
# a single object. Try: 1 + c(1, 2, 3)
```

```
## # A tibble: 1,000 x 10
##       id   sex dob_month dob_day dob_year treatment_arm trial_entrance death trial_exit years_in_trial
##    <int> <int> <chr>     <chr>   <chr>            <int> <date>         <lgl> <date>              <dbl>
##  1     1     1 November  25      2002                 1 2012-04-23     FALSE 2012-08-19          0.323
##  2     2     0 December  28      2002                 1 2012-01-26     FALSE 2015-03-09          3.12 
##  3     3     1 November  25      2004                 1 2011-12-12     TRUE  2012-08-15          0.676
##  4     4     1 June      13      1999                 0 2010-03-23     TRUE  2015-03-09          4.96 
##  5     5     0 March     6       2005                 1 2012-09-11     TRUE  2015-03-09          2.49 
##  6     6     1 January   3       2009                 1 2010-05-25     FALSE 2010-09-06          0.285
##  7     7     0 August    17      2004                 0 2010-08-18     TRUE  2010-12-06          0.301
##  8     8     0 January   2       2003                 1 2010-06-18     FALSE 2014-10-08          4.31 
##  9     9     1 July      15      2000                 1 2010-03-01     TRUE  2013-10-25          3.65 
## 10    10     1 June      14      2001                 0 2012-02-16     TRUE  2014-11-18          2.75 
## # ... with 990 more rows
```
…
Compare these two code snippets that perform identical steps. Which is easier to follow? 

With Chaining:

```r
# Note the manipulations I am doing in these snippets are useless; it is just to illustrate the point

cooties %>% 
    filter(death == TRUE) %>%
    select(-sex) %>%
    mutate(treatment_arm = ifelse(treatment_arm == 1, 'Cooticure', 'Placebo'))
```

```
## # A tibble: 644 x 7
##       id date_of_birth    treatment_arm trial_entrance death trial_exit years_in_trial
##    <int> <chr>            <chr>         <date>         <lgl> <date>              <dbl>
##  1     3 November 25 2004 Cooticure     2011-12-12     TRUE  2012-08-15          0.676
##  2     4 June 13 1999     Placebo       2010-03-23     TRUE  2015-03-09          4.96 
##  3     5 March 6 2005     Cooticure     2012-09-11     TRUE  2015-03-09          2.49 
##  4     7 August 17 2004   Placebo       2010-08-18     TRUE  2010-12-06          0.301
##  5     9 July 15 2000     Cooticure     2010-03-01     TRUE  2013-10-25          3.65 
##  6    10 June 14 2001     Placebo       2012-02-16     TRUE  2014-11-18          2.75 
##  7    11 January 2 1997   Placebo       2012-06-13     TRUE  2013-09-04          1.23 
##  8    16 May 12 1999      Cooticure     2012-11-16     TRUE  2014-12-03          2.05 
##  9    18 January 1 2006   Placebo       2012-12-26     TRUE  2014-11-03          1.85 
## 10    19 November 24 2006 Cooticure     2012-10-12     TRUE  2015-02-23          2.37 
## # ... with 634 more rows
```

Without chaining (i.e., "nested")

```r
mutate(
    select(
        filter(cooties, death == TRUE), 
        -sex), 
    treatment_arm = ifelse(treatment_arm == 1, 'Cooticure', 'Placebo'))
```

```
## # A tibble: 644 x 7
##       id date_of_birth    treatment_arm trial_entrance death trial_exit years_in_trial
##    <int> <chr>            <chr>         <date>         <lgl> <date>              <dbl>
##  1     3 November 25 2004 Cooticure     2011-12-12     TRUE  2012-08-15          0.676
##  2     4 June 13 1999     Placebo       2010-03-23     TRUE  2015-03-09          4.96 
##  3     5 March 6 2005     Cooticure     2012-09-11     TRUE  2015-03-09          2.49 
##  4     7 August 17 2004   Placebo       2010-08-18     TRUE  2010-12-06          0.301
##  5     9 July 15 2000     Cooticure     2010-03-01     TRUE  2013-10-25          3.65 
##  6    10 June 14 2001     Placebo       2012-02-16     TRUE  2014-11-18          2.75 
##  7    11 January 2 1997   Placebo       2012-06-13     TRUE  2013-09-04          1.23 
##  8    16 May 12 1999      Cooticure     2012-11-16     TRUE  2014-12-03          2.05 
##  9    18 January 1 2006   Placebo       2012-12-26     TRUE  2014-11-03          1.85 
## 10    19 November 24 2006 Cooticure     2012-10-12     TRUE  2015-02-23          2.37 
## # ... with 634 more rows
```
…
